sudo iptables -t nat -A PREROUTING -i eth0 -p tcp -m tcp --dport 22 -j DNAT --to-destination 192.168.203.10:80

docker pull ipython/notebook

docker save ipython/notebook | glance image-create --is-public=True --container-format=docker --disk-format=raw --name ipython/notebook

nova boot --image ipython/notebook --flavor m1.tiny  --meta ENV_PASSWORD=admin --meta ENV_USE_HTTP=1 notebook4


sudo iptables -t nat -D PREROUTING -i eth0 -p tcp -m tcp --dport 22 -j DNAT --to-destination 192.168.203.10:80
sudo iptables -t nat -A PREROUTING -i eth0 -p tcp -m tcp --dport 22 -j DNAT --to-destination 172.24.4.3:8888

172.24.4.5

sudo iptables -t nat -A PREROUTING -i eth0 -p tcp -m tcp --dport 22 -j DNAT --to-destination 172.24.4.5:8888

sudo iptables -t nat -A OUTPUT -p tcp --dport 54107 -d 192.168.203.10 -j DNAT --to-destination 172.24.4.6:80

nova boot --image ipython/notebook --flavor m1.tiny  --nic net-id=47a43a7e-0b95-4407-88d4-048cadaba8a1 --meta ENV_PASSWORD=admin --meta ENV_USE_HTTP=1 notebook4

sudo iptables -t nat -A OUTPUT -p tcp --dport 22 -d 192.168.203.10 -j DNAT --to-destination 172.24.4.6:80

sudo iptables -t nat -A OUTPUT -p tcp --dport 22 -j DNAT --to-destination 172.24.4.3:8888


sudo iptables -t nat -A OUTPUT -p tcp --dport 54107 -d 192.168.203.11 -j DNAT --to-destination 192.168.203.10:54015


sudo iptables -t nat -D PREROUTING -i eth0 -p tcp -m tcp --dport 22 -j DNAT --to-destination 192.168.203.10:80
sudo iptables -t nat -A PREROUTING -i eth0 -p tcp -m tcp --dport 22 -j DNAT --to-destination 172.24.4.3:8888

sudo iptables -t nat -A PREROUTING -i eth0 -p tcp -m tcp --dport 54015 -j DNAT --to-destination 172.24.4.5:80
